Firstnm,Lastnm,Gender,Cwid,Credhrs,Qualpts,Gpa
John,Roe,M,44444444,40,150,3.75
Jane,Roe,F,66666666,100,260,2.6
John,Doe,M,22222222,50,140,2.8
Jane,Doe,F,88888888,80,280,3.5
Penny,Lowe,F,55555555,40,140,3.5
Lenny,Lowe,M,11111111,100,280,2.8
Denny,Lowe,M,99999999,80,260,3.25
Benny,Lowe,M,77777777,120,90,0.75
Jenny,Lowe,F,33333333,50,90,1.8
Zoe,Coe,F,00000000,50,130,2.6